{
  "posts": [
    {
      "userId": 2,
      "id": 15,
      "nama": "John DOE",
      "email": "john@gmail.com",
      "nomor": "08996678755"
    },
    {
      "userId": 1635997727793,
      "nama": "Foo",
      "email": "foo@gmail.com",
      "nomor": "08996648868",
      "id": 104
    },
    {
      "userId": 1636007268650,
      "nama": "Pool",
      "email": "pool@gmail.com",
      "nomor": "0899787577",
      "id": 105
    }
  ]
}