{
  "posts": [
    {
      "userId": 2,
      "id": 15,
      "nama": "John DOE",
      "email": "john@gmail.com",
      "nomor": "08996678755"
    },
    {
      "userId": 1635908694946,
      "id": 103,
      "nama": "Pool",
      "email": "pool@gmail.com",
      "nomor": "089966787578"
    }
  ]
}